Case Study : BikeTrips (Last 12 months data)
…
Lets view the null values in the data frame that shows up in the summary.

all_trips[!complete.cases(all_trips),]

## # A tibble: 233,981 x 9
##    ride_id          rideable_type started_at          ended_at           
##    <chr>            <chr>         <dttm>              <dttm>             
##  1 08E0F78E1CFD68E3 docked_bike   2020-05-26 18:56:32 2020-05-27 04:40:44
##  2 A48456EF7719931B docked_bike   2020-05-18 16:22:00 2020-05-18 16:43:28
##  3 83FAF392AA066C64 docked_bike   2020-05-24 13:46:52 2020-05-24 14:16:41
##  4 65C257A3DEE7752A docked_bike   2020-05-25 17:05:23 2020-05-25 18:04:47
##  5 63A4FEDCF0722A16 docked_bike   2020-05-16 14:52:10 2020-05-16 14:52:10
##  6 2BC442F8F9A11D86 docked_bike   2020-05-16 11:43:48 2020-05-16 12:07:08
##  7 141FFEEAC0C20A24 docked_bike   2020-05-28 22:05:30 2020-05-29 23:05:21
##  8 D9907ABA20AB6B5D docked_bike   2020-05-27 17:57:57 2020-05-28 18:57:49
##  9 F8BAEDD3220C92ED docked_bike   2020-05-27 13:01:24 2020-05-27 13:29:07
## 10 68F7F0DE8999CD9C docked_bike   2020-05-21 21:55:38 2020-05-22 07:45:15
## #  with 233,971 more rows, and 5 more variables: start_station_name <chr>,
## #   start_station_id <chr>, end_station_name <chr>, end_station_id <chr>,
## #   member_casual <chr>
…
## # A tibble: 0 x 9
## #  with 9 variables: ride_id <chr>, rideable_type <chr>, started_at <dttm>,
## #   ended_at <dttm>, start_station_name <chr>, start_station_id <chr>,
## #   end_station_name <chr>, end_station_id <chr>, member_casual <chr>

all_trips[!complete.cases(all_trips$member_casual),]

## # A tibble: 0 x 9
## #  with 9 variables: ride_id <chr>, rideable_type <chr>, started_at <dttm>,
## #   ended_at <dttm>, start_station_name <chr>, start_station_id <chr>,
## #   end_station_name <chr>, end_station_id <chr>, member_casual <chr>

all_trips[!(complete.cases(all_trips$end_station_id) | complete.cases(all_trips$end_station_name)),]

## # A tibble: 171,317 x 9
##    ride_id          rideable_type started_at          ended_at           
##    <chr>            <chr>         <dttm>              <dttm>             
##  1 08E0F78E1CFD68E3 docked_bike   2020-05-26 18:56:32 2020-05-27 04:40:44
##  2 A48456EF7719931B docked_bike   2020-05-18 16:22:00 2020-05-18 16:43:28
##  3 83FAF392AA066C64 docked_bike   2020-05-24 13:46:52 2020-05-24 14:16:41
##  4 65C257A3DEE7752A docked_bike   2020-05-25 17:05:23 2020-05-25 18:04:47
##  5 63A4FEDCF0722A16 docked_bike   2020-05-16 14:52:10 2020-05-16 14:52:10
##  6 2BC442F8F9A11D86 docked_bike   2020-05-16 11:43:48 2020-05-16 12:07:08
##  7 141FFEEAC0C20A24 docked_bike   2020-05-28 22:05:30 2020-05-29 23:05:21
##  8 D9907ABA20AB6B5D docked_bike   2020-05-27 17:57:57 2020-05-28 18:57:49
##  9 F8BAEDD3220C92ED docked_bike   2020-05-27 13:01:24 2020-05-27 13:29:07
## 10 68F7F0DE8999CD9C docked_bike   2020-05-21 21:55:38 2020-05-22 07:45:15
## #  with 171,307 more rows, and 5 more variables: start_station_name <chr>,
## #   start_station_id <chr>, end_station_name <chr>, end_station_id <chr>,
## #   member_casual <chr>

all_trips[!(complete.cases(all_trips$start_station_id) | complete.cases(all_trips$start_station_name)),]

## # A tibble: 148,231 x 9
##    ride_id          rideable_type started_at          ended_at           
##    <chr>            <chr>         <dttm>              <dttm>             
##  1 60742256DFFFCA29 electric_bike 2020-07-31 08:30:34 2020-07-31 08:57:54
##  2 EBBD4FE9C8A95116 electric_bike 2020-07-29 19:02:25 2020-07-29 19:22:40
##  3 976336C6499A7189 electric_bike 2020-07-30 22:02:45 2020-07-30 22:17:54
##  4 EC549CDABDE45F98 electric_bike 2020-07-31 15:54:41 2020-07-31 16:00:35
##  5 70F53BFE303499AC electric_bike 2020-07-31 16:08:26 2020-07-31 16:15:29
##  6 11814668BAB6FCA3 electric_bike 2020-07-31 12:56:53 2020-07-31 13:13:27
##  7 D66AC7ACF66F8FF6 electric_bike 2020-07-30 08:32:14 2020-07-30 08:40:04
##  8 5196A992F09481DB electric_bike 2020-07-30 17:25:18 2020-07-30 17:25:35
##  9 2DB97E499E497D3D electric_bike 2020-07-30 17:28:20 2020-07-30 17:44:40
## 10 3C5018A592AB147C electric_bike 2020-07-31 18:40:31 2020-07-31 18:48:56
## #  with 148,221 more rows, and 5 more variables: start_station_name <chr>,
## #   start_station_id <chr>, end_station_name <chr>, end_station_id <chr>,
## #   member_casual <chr>
…
